2.593878732879287274e-01
2.619341638519218640e-01
2.682018711516850895e-01
2.761434466082846040e-01
2.830577781786433045e-01
2.860670324173673618e-01
2.830007262907374144e-01
2.722222403591869067e-01
2.529614360610695778e-01
2.252805007876520216e-01
1.917678962980059465e-01
1.554915060381297232e-01
1.202018092139913868e-01
8.947657702988578987e-02
6.443280028662698444e-02
4.559033858967485864e-02
3.207448292727141381e-02
2.253033134709681029e-02
1.599582233557721167e-02
1.141731240559933948e-02
8.223765572400633037e-03
5.963345823524975747e-03
4.342584754401817085e-03
3.183281665342518971e-03
2.340693606234660589e-03
1.731256726023248926e-03
1.284477188502951978e-03
9.575382657969102717e-04
7.156514160237307468e-04
5.368918223216824883e-04
4.035700649155475063e-04
3.042871051049226856e-04
2.297809601854568185e-04
1.739393584466125773e-04
1.318190906550680669e-04
1.000891034242184320e-04
7.605874772355854826e-05
5.788440206197028882e-05
4.407806805351489090e-05
3.360609749720115902e-05
2.563341034452575368e-05
1.957305657699378890e-05
1.495140191228456057e-05
1.143249229186357328e-05
8.745222836091247443e-06
6.695972449985717057e-06
5.128891419446772222e-06
3.932204378574515997e-06
3.015884799824076047e-06
2.315167590935840796e-06
1.777915211593076978e-06
1.366528800153128346e-06
1.050711159901081576e-06
8.085628588280743646e-07
6.224325141416407002e-07
4.795323858077866045e-07
3.695585686265556993e-07
2.850321947979168119e-07
2.199102865324255814e-07
1.697950618681377284e-07
1.311396258741182928e-07
1.013577562739202263e-07
7.836120503674528041e-08
6.062464234255309433e-08
4.691525880642644890e-08
3.633066324597318442e-08
2.814129902855828460e-08
2.181207388486286852e-08
1.691037539582317244e-08
1.311837424219358530e-08
1.017891630442748371e-08
7.902752203259563220e-09
6.136837842929358779e-09
4.768378881280710925e-09
3.705898777290398405e-09
2.881836048613000537e-09
2.241466391028714031e-09
1.744305421338106105e-09
1.357647257944594892e-09
1.057292282698578520e-09
8.235439352092319080e-10
6.417892781353585150e-10
5.002316000871698766e-10
3.901164601937741844e-10
3.042996145959902185e-10
2.374644748763880985e-10
1.853325162066626488e-10
1.447228828011227836e-10
1.130337062319187382e-10
8.832488903024779449e-11
6.902893343564829637e-11
5.397641392574657661e-11
4.221451060989309463e-11
3.303147027360098330e-11
2.585082274476766407e-11
2.024174613342881054e-11
1.585367798569589445e-11
1.242430813448904655e-11
9.740184560195377486e-12
7.641313611067732676e-12
5.997493177836121955e-12
4.711019847489433905e-12
3.702622260306873911e-12
2.912815752512680737e-12
2.293220548126966745e-12
1.807503096688316072e-12
1.425952995605544948e-12
1.126198789723349097e-12
8.900040112085804631e-13
7.036488516392960550e-13
5.559794822367241064e-13
4.386500652498866597e-13
3.451577084100616107e-13
2.707104184989550300e-13
2.115626529577913775e-13
1.649639109907013568e-13
1.283819080985953590e-13
9.984253941760386418e-14
7.761188510392799870e-14
6.029339716125045344e-14
4.679281543370219502e-14
3.625378601232396065e-14
2.801156502841289649e-14
2.156701781520436975e-14
1.651782064580604757e-14
1.256604500223398078e-14
9.469689761744957462e-15
7.049328644272002035e-15
5.158561377957249911e-15
3.688630854738124991e-15
2.551891099131804081e-15
1.683823570645288973e-15
1.032853505503031524e-15
5.622090928397393022e-16
2.439156644611399319e-16
6.024360349080641113e-17
5.506450133522417894e-23
6.024360349080499365e-17
2.439156644611407208e-16
5.622090928397507406e-16
1.032853505503048681e-15
1.683823570645294298e-15
2.551891099131796586e-15
3.688630854738116314e-15
5.158561377957271210e-15
7.049328644272099854e-15
9.469689761745115234e-15
1.256604500223413539e-14
1.651782064580607596e-14
2.156701781520408260e-14
2.801156502841241370e-14
3.625378601232369560e-14
4.679281543370218871e-14
6.029339716125037771e-14
7.761188510392754432e-14
9.984253941760270297e-14
1.283819080985935919e-13
1.649639109906994383e-13
2.115626529577900396e-13
2.707104184989554339e-13
3.451577084100632262e-13
4.386500652498874170e-13
5.559794822367237025e-13
7.036488516392955502e-13
8.900040112085828865e-13
1.126198789723359800e-12
1.425952995605560498e-12
1.807503096688325564e-12
2.293220548126964322e-12
2.912815752512662562e-12
3.702622260306865833e-12
4.711019847489494490e-12
5.997493177836217274e-12
7.641313611067742370e-12
9.740184560195257933e-12
1.242430813448881390e-11
1.585367798569569412e-11
2.024174613342893656e-11
2.585082274476799041e-11
3.303147027360091867e-11
4.221451060989273921e-11
5.397641392574669940e-11
6.902893343564891676e-11
8.832488903024820808e-11
1.130337062319186736e-10
1.447228828011223958e-10
1.853325162066622353e-10
2.374644748763879951e-10
3.042996145959907872e-10
3.901164601937761489e-10
5.002316000871698766e-10
6.417892781353487957e-10
8.235439352092154678e-10
1.057292282698569214e-09
1.357647257944595305e-09
1.744305421338107139e-09
2.241466391028716512e-09
2.881836048613013358e-09
3.705898777290426529e-09
4.768378881280760556e-09
6.136837842929396830e-09
7.902752203259488774e-09
1.017891630442737618e-08
1.311837424219379375e-08
1.691037539582324524e-08
2.181207388486150533e-08
2.814129902855622327e-08
3.633066324597306531e-08
4.691525880642906941e-08
6.062464234255781918e-08
7.836120503674938323e-08
1.013577562739195381e-07
1.311396258741150370e-07
1.697950618681391842e-07
2.199102865324479749e-07
2.850321947979835687e-07
3.695585686266651254e-07
4.795323858079112243e-07
6.224325141417520851e-07
8.085628588281653147e-07
1.050711159901088140e-06
1.366528800152878895e-06
1.777915211592916042e-06
2.315167590936678511e-06
3.015884799825487203e-06
3.932204378574699803e-06
5.128891419445779500e-06
6.695972449985408737e-06
8.745222836091877635e-06
1.143249229186416451e-05
1.495140191228323242e-05
1.957305657698734467e-05
2.563341034451840483e-05
3.360609749720462847e-05
4.407806805352924981e-05
5.788440206198322471e-05
7.605874772356844161e-05
1.000891034242334482e-04
1.318190906550841673e-04
1.739393584466144204e-04
2.297809601854222596e-04
3.042871051048319378e-04
4.035700649153684504e-04
5.368918223213637328e-04
7.156514160233883558e-04
9.575382657968322091e-04
1.284477188503157759e-03
1.731256726023460346e-03
2.340693606234948987e-03
3.183281665343374624e-03
4.342584754402935114e-03
5.963345823524924573e-03
8.223765572400613955e-03
1.141731240560412731e-02
1.599582233558180522e-02
2.253033134708542010e-02
3.207448292725258859e-02
4.559033858968105507e-02
6.443280028665902825e-02
8.947657702991430873e-02
1.202018092139968825e-01
1.554915060381019398e-01
1.917678962979574853e-01
2.252805007876188537e-01
2.529614360610603629e-01
2.722222403591828543e-01
2.830007262907235921e-01
2.860670324173317791e-01
2.830577781785948988e-01
2.761434466082541839e-01
2.682018711516793719e-01
2.619341638519230853e-01
